# This file is part of gacopyz.
# Copyright (C) 2006-2024 Sergey Poznyakoff
#
# This program is free software; you can redistribute it and/or modify
# it under the terms of the GNU General Public License as published by
# the Free Software Foundation; either version 3, or (at your option)
# any later version.
#
# This program is distributed in the hope that it will be useful,
# but WITHOUT ANY WARRANTY; without even the implied warranty of
# MERCHANTABILITY or FITNESS FOR A PARTICULAR PURPOSE.  See the
# GNU General Public License for more details.
#
# You should have received a copy of the GNU General Public License
# along with this program.  If not, see <http://www.gnu.org/licenses/>.

# State transition table for milter state machine

INIT
	OPTS 

OPTS
	CONN
	UNKN

CONN
	HELO
	MAIL
	UNKN

HELO
	HELO
	MAIL
	UNKN

MAIL
	RCPT
	ABRT
	UNKN

RCPT
	HDRS
	EOHS
	DATA
	BODY
	ENDM
	RCPT
	ABRT
	UNKN

DATA
	EOHS
	HDRS
	ABRT

HDRS
	EOHS
	HDRS
	ABRT

EOHS
	BODY
	ENDM
	ABRT

BODY
	ENDM
	BODY
	ABRT

ENDM
	QUIT
	MAIL
	UNKN

QUIT

ABRT

UNKN
	HELO
	MAIL
	RCPT
	ABRT
	DATA
	BODY
	UNKN
	ABRT
	QUIT

SKIP
